Extracts industry level EROIs from tidy Input Output matrices — extract_tidy_industry_erois • EROITools
…
#> $ K_feed        <list> <<matrix[9 x 7]>>, <<matrix[5 x 4]>>
#> $ A_feed        <list> <<matrix[9 x 12]>>, <<matrix[5 x 9]>>
#> $ L_pxp_feed    <list> <<matrix[12 x 12]>>, <<matrix[9 x 9]>>
#> $ L_ixp_feed    <list> <<matrix[7 x 12]>>, <<matrix[4 x 9]>>
#> $ E_EIOU        <list> <<matrix[5 x 7]>>, <<matrix[5 x 4]>>
#> $ e_EIOU        <list> <<matrix[7 x 1]>>, <<matrix[4 x 1]>>
#> $ eroi_g_p      <list> <<matrix[12 x 1]>>, <<matrix[9 x 1]>>
#> $ eroi_g_i      <list> <<matrix[7 x 1]>>, <<matrix[4 x 1]>>
#> $ eroi_g_p_feed <list> <<matrix[12 x 1]>>, <<matrix[9 x 1]>>
#> $ eroi_g_i_feed <list> <<matrix[7 x 1]>>, <<matrix[4 x 1]>>
# Let's then extract EROIs in a tidy format:
calculated_erois_raw %>%
 extract_tidy_industry_erois() %>%
 print()
#> # A tibble: 22 × 9
#>    Country Method Energy.type Last.stage  Year Type  Boundary  Industry_name    
#>    <chr>   <chr>  <chr>       <chr>      <dbl> <chr> <chr>     <chr>            
#>  1 A       PCM    E           Final       2018 Gross All       Blast furnaces   
#>  2 A       PCM    E           Final       2018 Gross All       Coal mines       
#>  3 A       PCM    E           Final       2018 Gross All       Coke ovens       
#>  4 A       PCM    E           Final       2018 Gross All       Main activity pr…
#>  5 A       PCM    E           Final       2018 Gross All       Natural gas extr…
#>  6 A       PCM    E           Final       2018 Gross All       Oil extraction   
#>  7 A       PCM    E           Final       2018 Gross All       Oil refineries   
#>  8 A       PCM    E           Final       2018 Gross Feedstock Blast furnaces   
#>  9 A       PCM    E           Final       2018 Gross Feedstock Coal mines       
#> 10 A       PCM    E           Final       2018 Gross Feedstock Coke ovens       
#> # ℹ 12 more rows
#> # ℹ 1 more variable: EROI <dbl>
…
